{
    "layout": {
        "title": false,
        "customJS": [
            "jquery.peity.js",
            "moment.js",
            "pretty.js",
            "highcharts.js",
            "themes/dark-unica.js",
            "jquery.animate-colors.js",
            "jquery.animate-colors-min.js"
        ],
        "widgets": [
            {
                "row": 1,
                "col": 1,
                "width": 2,
                "height": 2,
                "widget": "vmstate",
                "job": "vmstatejob",
                "config": "vmstate1"
            }
        ]
    },
    "config": {
        "vmstate1": {
            "interval": 120,
            "vms": [
                {
                    "name": "Host1",
                    "host": "host1.yourdomain.com"
                },
                {
                    "name": "Host2",
                    "host": "host2.yourdomain.com"
                }
            ],
            "maxCpu": 90,
            "maxRam": 90,
            "minDiskGB": 1
        }
    },
    "password": "password"
}